Lab 5
…
8

diabetes_clean %>% group_by(frame) %>% summarise(mean.glyhb = mean(glyhb_star))

## # A tibble: 3 x 2
##   frame  mean.glyhb
##   <fct>       <dbl>
## 1 large        1.75
## 2 medium       1.67
## 3 small        1.58

diabetes_clean %>% group_by(waist) %>% summarise(mean.glyhb = mean(glyhb_star))

## # A tibble: 29 x 2
##    waist mean.glyhb
##    <int>      <dbl>
##  1    26       1.32
##  2    28       1.40
##  3    29       1.54
##  4    30       1.44
##  5    31       1.51
##  6    32       1.49
##  7    33       1.63
##  8    34       1.68
##  9    35       1.66
## 10    36       1.72
## #  with 19 more rows

diabetes_clean %>% group_by(height) %>% summarise(mean.glyhb = mean(glyhb_star))

## # A tibble: 21 x 2
##    height mean.glyhb
##     <int>      <dbl>
##  1     52       1.45
##  2     55       1.57
##  3     58       1.58
##  4     59       1.85
##  5     60       1.74
##  6     61       1.68
##  7     62       1.66
##  8     63       1.66
##  9     64       1.54
## 10     65       1.66
## #  with 11 more rows
…
